<?xml version="1.0" encoding="UTF-8" standalone="no"?>
<!-- Generated by Microsoft Visio, SVG Export procesy watki.svg Page-1 -->

<svg
   xmlns:dc="http://purl.org/dc/elements/1.1/"
   xmlns:cc="http://creativecommons.org/ns#"
   xmlns:rdf="http://www.w3.org/1999/02/22-rdf-syntax-ns#"
   xmlns:svg="http://www.w3.org/2000/svg"
   xmlns="http://www.w3.org/2000/svg"
   xmlns:xlink="http://www.w3.org/1999/xlink"
   xmlns:sodipodi="http://sodipodi.sourceforge.net/DTD/sodipodi-0.dtd"
   xmlns:inkscape="http://www.inkscape.org/namespaces/inkscape"
   width="552.47968"
   height="122.06866"
   viewBox="0 0 441.98439 97.654951"
   xml:space="preserve"
   color-interpolation-filters="sRGB"
   class="st12"
   id="svg2"
   version="1.1"
   inkscape:version="0.48.3.1 r9886"
   sodipodi:docname="procesy_watki.svg"
   style="font-size:12px;fill:none;stroke-linecap:square;stroke-miterlimit:3;overflow:visible"><metadata
   id="metadata181"><rdf:RDF><cc:Work
       rdf:about=""><dc:format>image/svg+xml</dc:format><dc:type
         rdf:resource="http://purl.org/dc/dcmitype/StillImage" /></cc:Work></rdf:RDF></metadata><sodipodi:namedview
   pagecolor="#ffffff"
   bordercolor="#666666"
   borderopacity="1"
   objecttolerance="10"
   gridtolerance="10"
   guidetolerance="10"
   inkscape:pageopacity="0"
   inkscape:pageshadow="2"
   inkscape:window-width="1129"
   inkscape:window-height="814"
   id="namedview179"
   showgrid="false"
   inkscape:zoom="0.44853744"
   inkscape:cx="683.11367"
   inkscape:cy="-99.927821"
   inkscape:window-x="0"
   inkscape:window-y="1"
   inkscape:window-maximized="0"
   inkscape:current-layer="svg2"
   fit-margin-top="20"
   fit-margin-left="20"
   fit-margin-right="20"
   fit-margin-bottom="20" />
	<style
   type="text/css"
   id="style4">
	
		.st1 {fill:url(#grad0-5);stroke:#61973d;stroke-width:0.75}
		.st2 {fill:url(#grad0-9);stroke:#4f87bb;stroke-width:0.75}
		.st3 {fill:#000000;font-family:Calibri;font-size:1.00001em}
		.st4 {fill:none;stroke:none;stroke-width:0.25}
		.st5 {fill:url(#grad0-24);stroke:#d06d29;stroke-width:0.75}
		.st6 {fill:#000000;font-family:Calibri;font-size:0.916672em}
		.st7 {fill:url(#grad0-31);stroke:#dfa800;stroke-width:0.75}
		.st8 {visibility:visible}
		.st9 {fill:#5b9bd5;fill-opacity:0.25;filter:url(#filter_2);stroke:#5b9bd5;stroke-opacity:0.25}
		.st10 {fill:#4f87bb;fill-opacity:0.41;stroke:#40709c;stroke-width:0.75}
		.st11 {fill:#4f87bb;fill-opacity:0.4;stroke:#40709c;stroke-width:0.75}
		.st12 {fill:none;fill-rule:evenodd;font-size:12px;overflow:visible;stroke-linecap:square;stroke-miterlimit:3}
	
	</style>

	<defs
   id="Patterns_And_Gradients">
		<linearGradient
   id="grad0-5"
   x1="0"
   y1="0"
   x2="1"
   y2="0"
   gradientTransform="matrix(0.5,0.8660254,-0.8660254,0.5,0.6830127,-0.1830127)">
			<stop
   offset="0"
   stop-color="#ebf1e8"
   stop-opacity="1"
   id="stop8" />
			<stop
   offset="0.24"
   stop-color="#f5f8f4"
   stop-opacity="1"
   id="stop10" />
			<stop
   offset="0.54"
   stop-color="#feffff"
   stop-opacity="1"
   id="stop12" />
		</linearGradient>
		<linearGradient
   id="grad0-9"
   x1="0"
   y1="0"
   x2="1"
   y2="0"
   gradientTransform="matrix(0.5,0.8660254,-0.8660254,0.5,0.6830127,-0.1830127)">
			<stop
   offset="0"
   stop-color="#e9eff7"
   stop-opacity="1"
   id="stop15" />
			<stop
   offset="0.24"
   stop-color="#f4f7fb"
   stop-opacity="1"
   id="stop17" />
			<stop
   offset="0.54"
   stop-color="#feffff"
   stop-opacity="1"
   id="stop19" />
		</linearGradient>
		<linearGradient
   id="grad0-24"
   x1="-0.375"
   y1="501.35699"
   x2="93.918297"
   y2="501.35699"
   gradientUnits="userSpaceOnUse">
			<stop
   offset="0"
   stop-color="#fbece7"
   stop-opacity="1"
   id="stop22" />
			<stop
   offset="0.24"
   stop-color="#fdf5f3"
   stop-opacity="1"
   id="stop24" />
			<stop
   offset="0.54"
   stop-color="#feffff"
   stop-opacity="1"
   id="stop26" />
		</linearGradient>
		<linearGradient
   id="grad0-31"
   x1="-0.375"
   y1="548.12903"
   x2="47.146702"
   y2="548.12903"
   gradientUnits="userSpaceOnUse">
			<stop
   offset="0"
   stop-color="#fef4e7"
   stop-opacity="1"
   id="stop29" />
			<stop
   offset="0.24"
   stop-color="#fef9f3"
   stop-opacity="1"
   id="stop31" />
			<stop
   offset="0.54"
   stop-color="#feffff"
   stop-opacity="1"
   id="stop33" />
		</linearGradient>
	<linearGradient
   inkscape:collect="always"
   xlink:href="#grad0-5"
   id="linearGradient3158"
   gradientTransform="scale(1.4113556,0.70853864)"
   x1="-0.26570198"
   y1="709.5943"
   x2="130.81535"
   y2="709.5943"
   gradientUnits="userSpaceOnUse" /><linearGradient
   inkscape:collect="always"
   xlink:href="#grad0-9"
   id="linearGradient3160"
   gradientTransform="scale(1.5117032,0.66150552)"
   x1="-0.24806456"
   y1="869.01166"
   x2="31.187803"
   y2="869.01166"
   gradientUnits="userSpaceOnUse" /><linearGradient
   inkscape:collect="always"
   xlink:href="#grad0-5"
   id="linearGradient3162"
   gradientTransform="scale(1.4113556,0.70853864)"
   x1="-0.26570198"
   y1="709.5943"
   x2="130.81535"
   y2="709.5943"
   gradientUnits="userSpaceOnUse" /><linearGradient
   inkscape:collect="always"
   xlink:href="#grad0-9"
   id="linearGradient3164"
   gradientTransform="scale(1.5117032,0.66150552)"
   x1="-0.24806456"
   y1="869.01166"
   x2="31.187803"
   y2="869.01166"
   gradientUnits="userSpaceOnUse" /><linearGradient
   inkscape:collect="always"
   xlink:href="#grad0-9"
   id="linearGradient3166"
   gradientTransform="scale(1.5117032,0.66150552)"
   x1="-0.24806456"
   y1="869.01166"
   x2="31.187803"
   y2="869.01166"
   gradientUnits="userSpaceOnUse" /><linearGradient
   inkscape:collect="always"
   xlink:href="#grad0-9"
   id="linearGradient3168"
   gradientTransform="scale(1.5117032,0.66150552)"
   x1="-0.24806456"
   y1="869.01166"
   x2="31.187803"
   y2="869.01166"
   gradientUnits="userSpaceOnUse" /><linearGradient
   inkscape:collect="always"
   xlink:href="#grad0-9"
   id="linearGradient3170"
   gradientTransform="scale(1.5117032,0.66150552)"
   x1="-0.24806456"
   y1="869.01166"
   x2="31.187803"
   y2="869.01166"
   gradientUnits="userSpaceOnUse" /><linearGradient
   inkscape:collect="always"
   xlink:href="#grad0-9"
   id="linearGradient3172"
   gradientTransform="scale(1.5117032,0.66150552)"
   x1="-0.24806456"
   y1="869.01166"
   x2="31.187803"
   y2="869.01166"
   gradientUnits="userSpaceOnUse" /><linearGradient
   inkscape:collect="always"
   xlink:href="#grad0-9"
   id="linearGradient3174"
   gradientTransform="scale(1.5117032,0.66150552)"
   x1="-0.24806456"
   y1="869.01166"
   x2="31.187803"
   y2="869.01166"
   gradientUnits="userSpaceOnUse" />
		
		
		
		
		
		
		
		
		
		
		
		
		
		
	<linearGradient
   inkscape:collect="always"
   xlink:href="#grad0-5"
   id="linearGradient3254"
   gradientUnits="userSpaceOnUse"
   gradientTransform="scale(1.4113556,0.70853864)"
   x1="-0.26570198"
   y1="709.5943"
   x2="130.81535"
   y2="709.5943" /><linearGradient
   inkscape:collect="always"
   xlink:href="#grad0-9"
   id="linearGradient3256"
   gradientUnits="userSpaceOnUse"
   gradientTransform="scale(1.5117032,0.66150552)"
   x1="-0.24806456"
   y1="869.01166"
   x2="31.187803"
   y2="869.01166" /><linearGradient
   inkscape:collect="always"
   xlink:href="#grad0-5"
   id="linearGradient3258"
   gradientUnits="userSpaceOnUse"
   gradientTransform="scale(1.4113556,0.70853864)"
   x1="-0.26570198"
   y1="709.5943"
   x2="130.81535"
   y2="709.5943" /><linearGradient
   inkscape:collect="always"
   xlink:href="#grad0-24"
   id="linearGradient3260"
   gradientUnits="userSpaceOnUse"
   x1="-0.375"
   y1="501.35699"
   x2="93.918297"
   y2="501.35699" /><linearGradient
   inkscape:collect="always"
   xlink:href="#grad0-31"
   id="linearGradient3262"
   gradientUnits="userSpaceOnUse"
   x1="-0.375"
   y1="548.12903"
   x2="47.146702"
   y2="548.12903" /><linearGradient
   inkscape:collect="always"
   xlink:href="#grad0-9"
   id="linearGradient3264"
   gradientUnits="userSpaceOnUse"
   gradientTransform="scale(1.5117032,0.66150552)"
   x1="-0.24806456"
   y1="869.01166"
   x2="31.187803"
   y2="869.01166" /><linearGradient
   inkscape:collect="always"
   xlink:href="#grad0-9"
   id="linearGradient3266"
   gradientUnits="userSpaceOnUse"
   gradientTransform="scale(1.5117032,0.66150552)"
   x1="-0.24806456"
   y1="869.01166"
   x2="31.187803"
   y2="869.01166" /><linearGradient
   inkscape:collect="always"
   xlink:href="#grad0-9"
   id="linearGradient3268"
   gradientUnits="userSpaceOnUse"
   gradientTransform="scale(1.5117032,0.66150552)"
   x1="-0.24806456"
   y1="869.01166"
   x2="31.187803"
   y2="869.01166" /><linearGradient
   inkscape:collect="always"
   xlink:href="#grad0-9"
   id="linearGradient3270"
   gradientUnits="userSpaceOnUse"
   gradientTransform="scale(1.5117032,0.66150552)"
   x1="-0.24806456"
   y1="869.01166"
   x2="31.187803"
   y2="869.01166" /><linearGradient
   inkscape:collect="always"
   xlink:href="#grad0-9"
   id="linearGradient3272"
   gradientUnits="userSpaceOnUse"
   gradientTransform="scale(1.5117032,0.66150552)"
   x1="-0.24806456"
   y1="869.01166"
   x2="31.187803"
   y2="869.01166" /><linearGradient
   inkscape:collect="always"
   xlink:href="#grad0-9"
   id="linearGradient3274"
   gradientUnits="userSpaceOnUse"
   gradientTransform="scale(1.5117032,0.66150552)"
   x1="-0.24806456"
   y1="869.01166"
   x2="31.187803"
   y2="869.01166" /></defs>
	<defs
   id="Filters">
		<filter
   id="filter_2"
   color-interpolation-filters="sRGB">
			<feGaussianBlur
   stdDeviation="2"
   id="feGaussianBlur37" />
		</filter>
	</defs>
	<g
   transform="matrix(0.69614344,0,0,0.69614344,16.261077,-333.99411)"
   id="group9-1">
			<title
   id="title44">Sheet.9</title>
			<g
   id="shape1-2">
				<title
   id="title47">Sheet.1</title>
				<rect
   style="fill:url(#linearGradient3254);stroke:#61973d;stroke-width:0.75"
   id="rect49"
   class="st1"
   height="92.125999"
   width="184.252"
   y="503.14999"
   x="0" />
			</g>
			<g
   transform="translate(94.9606,-21.2598)"
   id="shape2-6">
				<title
   id="title52">Sheet.2</title>
				<desc
   id="desc54">Wątek</desc>
				<rect
   style="fill:url(#linearGradient3256);stroke:#4f87bb;stroke-width:0.75"
   id="rect56"
   class="st2"
   height="20.045"
   width="46.771702"
   y="575.23102"
   x="0" />
				<text
   style="fill:#000000;font-family:Calibri"
   id="text58"
   class="st3"
   y="588.84998"
   x="7.4499998">Wątek</text>
			</g>
			<g
   transform="translate(0,-72.126)"
   id="shape3-11">
				<title
   id="title61">Sheet.3</title>
				<desc
   id="desc63">Proces</desc>
				<rect
   style="fill:none;stroke:none"
   id="rect65"
   class="st4"
   height="20"
   width="41.938499"
   y="575.276"
   x="0" />
				<text
   style="fill:#000000;font-family:Calibri"
   id="text67"
   class="st3"
   y="588.88"
   x="4.7399998">Proces</text>
			</g>
		</g><g
   transform="matrix(0.69614344,0,0,0.69614344,297.45889,-333.99411)"
   id="group10-14">
			<title
   id="title70">Sheet.10</title>
			<g
   id="shape5-15">
				<title
   id="title73">Sheet.5</title>
				<rect
   style="fill:url(#linearGradient3258);stroke:#61973d;stroke-width:0.75"
   id="rect75"
   class="st1"
   height="92.125999"
   width="184.252"
   y="503.14999"
   x="0" />
			</g>
			<g
   transform="translate(0,-72.126)"
   id="shape7-18">
				<title
   id="title78">Sheet.7</title>
				<desc
   id="desc80">Proces</desc>
				<rect
   style="fill:none;stroke:none"
   id="rect82"
   class="st4"
   height="20"
   width="41.938499"
   y="575.276"
   x="0" />
				<text
   style="fill:#000000;font-family:Calibri"
   id="text84"
   class="st3"
   y="588.88"
   x="4.7399998">Proces</text>
			</g>
		</g><g
   transform="matrix(0.69614344,0,0,0.69614344,190.90022,-333.00767)"
   id="shape11-21">
			<title
   id="title87">Sheet.11</title>
			<rect
   style="fill:url(#linearGradient3260);stroke:#d06d29;stroke-width:0.75"
   id="rect89"
   class="st5"
   height="93.543297"
   width="93.543297"
   y="501.73199"
   x="0" />
		</g><g
   transform="matrix(0.60834725,0,0,0.60834725,193.10692,-281.84216)"
   id="shape12-25">
			<title
   id="title92">Sheet.12</title>
			<desc
   id="desc94">System operacyjny</desc>
			<rect
   style="fill:none;stroke:none"
   id="rect96"
   class="st4"
   height="20"
   width="93.543297"
   y="575.276"
   x="0" />
			<text
   style="fill:#000000;font-family:Calibri"
   id="text98"
   class="st6"
   y="588.58002"
   x="4.8000002">System operacyjny</text>
		</g><g
   transform="matrix(0.69614344,0,0,0.69614344,207.17953,-349.78125)"
   id="shape13-28">
			<title
   id="title101">Sheet.13</title>
			<desc
   id="desc103">IPC</desc>
			<rect
   style="fill:url(#linearGradient3262);stroke:#dfa800;stroke-width:0.75"
   id="rect105"
   class="st7"
   height="46.771702"
   width="46.771702"
   y="548.50403"
   x="0" />
			<text
   style="fill:#000000;font-family:Calibri"
   id="text107"
   class="st3"
   y="575.48999"
   x="15.58">IPC</text>
		</g><g
   transform="matrix(0.69614344,0,0,0.69614344,116.48527,-365.56769)"
   id="shape15-33">
			<title
   id="title110">Simple Double Arrow</title>
			<g
   style="visibility:visible"
   class="st8"
   transform="translate(0.345598,1.97279)"
   id="shadow15-34">
				<path
   style="fill:#5b9bd5;fill-opacity:0.25;stroke:#5b9bd5;stroke-opacity:0.25;filter:url(#filter_2)"
   inkscape:connector-curvature="0"
   id="path113"
   class="st9"
   d="m 0,595.28 11.34,-11.34 0,5.67 107.12,0 0,-5.67 11.34,11.34 -11.34,11.33 0,-5.67 -107.12,0 0,5.67 L 0,595.28 z" />
			</g>
			<path
   style="fill:#4f87bb;fill-opacity:0.41000001;stroke:#40709c;stroke-width:0.75"
   inkscape:connector-curvature="0"
   id="path115"
   class="st10"
   d="m 0,595.28 11.34,-11.34 0,5.67 107.12,0 0,-5.67 11.34,11.34 -11.34,11.33 0,-5.67 -107.12,0 0,5.67 L 0,595.28 z" />
		</g><g
   transform="matrix(0.69614344,0,0,0.69614344,239.55786,-366.06056)"
   id="shape16-38">
			<title
   id="title118">Simple Double Arrow.16</title>
			<g
   style="visibility:visible"
   class="st8"
   transform="translate(0.345598,1.97279)"
   id="shadow16-39">
				<path
   style="fill:#5b9bd5;fill-opacity:0.25;stroke:#5b9bd5;stroke-opacity:0.25;filter:url(#filter_2)"
   inkscape:connector-curvature="0"
   id="path121"
   class="st9"
   d="m 0,595.28 11.34,-11.34 0,5.67 104.13,0 0,-5.67 11.34,11.34 -11.34,11.33 0,-5.67 -104.13,0 0,5.67 L 0,595.28 z" />
			</g>
			<path
   style="fill:#4f87bb;fill-opacity:0.4;stroke:#40709c;stroke-width:0.75"
   inkscape:connector-curvature="0"
   id="path123"
   class="st11"
   d="m 0,595.28 11.34,-11.34 0,5.67 104.13,0 0,-5.67 11.34,11.34 -11.34,11.33 0,-5.67 -104.13,0 0,5.67 L 0,595.28 z" />
		</g><g
   transform="matrix(0.69614344,0,0,0.69614344,75.460837,-374.30638)"
   id="shape18-43">
			<title
   id="title126">Sheet.18</title>
			<desc
   id="desc128">Wątek</desc>
			<rect
   style="fill:url(#linearGradient3264);stroke:#4f87bb;stroke-width:0.75"
   id="rect130"
   class="st2"
   height="20.045"
   width="46.771702"
   y="575.23102"
   x="0" />
			<text
   style="fill:#000000;font-family:Calibri"
   id="text132"
   class="st3"
   y="588.84998"
   x="7.4499998">Wątek</text>
		</g><g
   transform="matrix(0.69614344,0,0,0.69614344,33.034377,-364.43994)"
   id="shape19-47">
			<title
   id="title135">Sheet.19</title>
			<desc
   id="desc137">Wątek</desc>
			<rect
   style="fill:url(#linearGradient3266);stroke:#4f87bb;stroke-width:0.75"
   id="rect139"
   class="st2"
   height="20.045"
   width="46.771702"
   y="575.23102"
   x="0" />
			<text
   style="fill:#000000;font-family:Calibri"
   id="text141"
   class="st3"
   y="588.84998"
   x="7.4499998">Wątek</text>
		</g><g
   transform="matrix(0.69614344,0,0,0.69614344,40.927247,-341.81737)"
   id="shape20-51">
			<title
   id="title144">Sheet.20</title>
			<desc
   id="desc146">Wątek</desc>
			<rect
   style="fill:url(#linearGradient3268);stroke:#4f87bb;stroke-width:0.75"
   id="rect148"
   class="st2"
   height="20.045"
   width="46.771702"
   y="575.23102"
   x="0" />
			<text
   style="fill:#000000;font-family:Calibri"
   id="text150"
   class="st3"
   y="588.84998"
   x="7.4499998">Wątek</text>
		</g><g
   transform="matrix(0.69614344,0,0,0.69614344,335.44535,-374.30638)"
   id="shape21-55">
			<title
   id="title153">Sheet.21</title>
			<desc
   id="desc155">Wątek</desc>
			<rect
   style="fill:url(#linearGradient3270);stroke:#4f87bb;stroke-width:0.75"
   id="rect157"
   class="st2"
   height="20.045"
   width="46.771702"
   y="575.23102"
   x="0" />
			<text
   style="fill:#000000;font-family:Calibri"
   id="text159"
   class="st3"
   y="588.84998"
   x="7.4499998">Wątek</text>
		</g><g
   transform="matrix(0.69614344,0,0,0.69614344,345.31249,-349.78125)"
   id="shape22-59">
			<title
   id="title162">Sheet.22</title>
			<desc
   id="desc164">Wątek</desc>
			<rect
   style="fill:url(#linearGradient3272);stroke:#4f87bb;stroke-width:0.75"
   id="rect166"
   class="st2"
   height="20.045"
   width="46.771702"
   y="575.23102"
   x="0" />
			<text
   style="fill:#000000;font-family:Calibri"
   id="text168"
   class="st3"
   y="588.84998"
   x="7.4499998">Wątek</text>
		</g><g
   transform="matrix(0.69614344,0,0,0.69614344,381.32538,-381.28383)"
   id="shape23-63">
			<title
   id="title171">Sheet.23</title>
			<desc
   id="desc173">Wątek</desc>
			<rect
   style="fill:url(#linearGradient3274);stroke:#4f87bb;stroke-width:0.75"
   id="rect175"
   class="st2"
   height="20.045"
   width="46.771702"
   y="575.23102"
   x="0" />
			<text
   style="fill:#000000;font-family:Calibri"
   id="text177"
   class="st3"
   y="588.84998"
   x="7.4499998">Wątek</text>
		</g>
</svg>